[gd_scene load_steps=6 format=3 uid="uid://co0k03p3mitwf"]

[sub_resource type="Curve" id="Curve_1mv3a"]
_data = [Vector2(0, 1), 0.0, 0.0, 0, 0, Vector2(1, 0.350943), 0.0, 0.0, 0, 0]
point_count = 2

[sub_resource type="CurveTexture" id="CurveTexture_b7j8f"]
curve = SubResource("Curve_1mv3a")

[sub_resource type="ParticleProcessMaterial" id="ParticleProcessMaterial_kyqbw"]
particle_flag_disable_z = true
direction = Vector3(0, 0, 0)
spread = 180.0
initial_velocity_min = 300.0
initial_velocity_max = 300.0
gravity = Vector3(0, 0, 0)
damping_min = 550.0
damping_max = 550.0
scale_min = 7.0
scale_max = 7.0
scale_curve = SubResource("CurveTexture_b7j8f")
color = Color(1, 0, 0, 1)

[sub_resource type="Animation" id="Animation_xxj47"]
resource_name = "default"
tracks/0/type = "value"
tracks/0/imported = false
tracks/0/enabled = true
tracks/0/path = NodePath(".:emitting")
tracks/0/interp = 1
tracks/0/loop_wrap = true
tracks/0/keys = {
"times": PackedFloat32Array(0),
"transitions": PackedFloat32Array(1),
"update": 1,
"values": [true]
}
tracks/1/type = "method"
tracks/1/imported = false
tracks/1/enabled = true
tracks/1/path = NodePath(".")
tracks/1/interp = 1
tracks/1/loop_wrap = true
tracks/1/keys = {
"times": PackedFloat32Array(1),
"transitions": PackedFloat32Array(1),
"values": [{
"args": [],
"method": &"queue_free"
}]
}

[sub_resource type="AnimationLibrary" id="AnimationLibrary_agj4v"]
_data = {
"default": SubResource("Animation_xxj47")
}

[node name="ProjectileExplosion" type="GPUParticles2D"]
emitting = false
amount = 80
process_material = SubResource("ParticleProcessMaterial_kyqbw")
lifetime = 0.3
one_shot = true
explosiveness = 0.9

[node name="AnimationPlayer" type="AnimationPlayer" parent="."]
libraries = {
"": SubResource("AnimationLibrary_agj4v")
}
autoplay = "default"
