[gd_scene load_steps=3 format=3 uid="uid://b5g3b12wanswp"]

[ext_resource type="Script" path="res://UI/Credits.gd" id="1_7luyd"]
[ext_resource type="PackedScene" uid="uid://38bn2j0r0qa6" path="res://UI/CustomButton.tscn" id="1_by371"]

[node name="Credits" type="Control"]
layout_mode = 3
anchors_preset = 15
anchor_right = 1.0
anchor_bottom = 1.0
grow_horizontal = 2
grow_vertical = 2
script = ExtResource("1_7luyd")

[node name="Background" type="ColorRect" parent="."]
z_index = -1
offset_left = -8.0
offset_top = -8.0
offset_right = 1032.0
offset_bottom = 776.0
color = Color(0, 0, 0, 1)

[node name="lblTitle" type="Label" parent="."]
layout_mode = 1
anchors_preset = 5
anchor_left = 0.5
anchor_right = 0.5
offset_left = -120.0
offset_right = 120.0
offset_bottom = 72.0
grow_horizontal = 2
theme_override_font_sizes/font_size = 48
text = "CREDITS"

[node name="ScrollContainer" type="ScrollContainer" parent="."]
layout_mode = 0
offset_left = 24.0
offset_top = 80.0
offset_right = 1000.0
offset_bottom = 672.0

[node name="Label" type="Label" parent="ScrollContainer"]
layout_mode = 2
theme_override_font_sizes/font_size = 24
text = "---Game-Desing-Programming-More Boring Shit---
LSD

---Art used---
https://kenney.nl/assets/1-bit-pack

---Sound obtained from FreeSound---

Very Fast Bubble Pop2.mp3 [by CGEffex]

Assault Rifle Reload [by Kodack]

shotgun sounds [by lensflare8642]

Shotgun Cock Reload Layered (Powerful) [by Paul368]

Rifle-or-shotgun-reload.wav [by MaximBomba]

Sniper Shoot 2 [by Carlfnf]

357 Magnum Revolver Gunshot [by Shark_Anthony]

Shotgun Fire [by hyperix6]

Gunshot.wav [by Cloud-10]

Designed Gunshot [by zreimbach]

Shoot 2 HZA 01-08-2021.wav [by hz37]

Reload and shoot HZA 01-08-2021.wav [by hz37]

Gunshot.ogg [by wesleyextreme_gamer]

Explosion 1 [by magnuswaker]

FUN-EXPLOSION02.wav [by newagesoup]

AR-15 - bolt rack in a large room [by oneshotofficial]

Solo Kyma Zombie 6 [by Slave2theLight]

bell ding 1.wav [by 5ro4]

170339_Berno Smit_Bolt action rifle
reloading mechanism.wav [by BGS117]

galil reload sound.mp3 [by GFL7]

AR15 Various Sounds [by wadaltmon]

Explosion 3.wav [by Deganoth]

Huge Explosion [by florianreichelt]

-----THE END-----"

[node name="CustomButton" parent="." instance=ExtResource("1_by371")]
layout_mode = 1
anchors_preset = 7
anchor_left = 0.5
anchor_top = 1.0
anchor_right = 0.5
anchor_bottom = 1.0
offset_left = -46.0
offset_top = -76.0
offset_right = 46.0
offset_bottom = -24.0
grow_horizontal = 2
grow_vertical = 0
text = "QUIT"

[connection signal="pressed" from="CustomButton" to="." method="_on_custom_button_pressed"]
